…
## 8.3 Generate predictions for the tree

Create both probability and class predictions for the tree on the test
set, then combine them with the test data.

``` r
tree_preds <- predict(tree_fit, test_data, type = "prob") %>% 
  bind_cols(predict(tree_fit, test_data)) %>% 
  bind_cols(test_data)

tree_preds
```

    ## # A tibble: 891 × 17
    ##    .pred_bad .pred_good .pred_class Status Seniority Home     Time   Age Marital
    ##        <dbl>      <dbl> <fct>       <fct>      <int> <fct>   <int> <int> <fct>  
    ##  1     0.238      0.762 good        bad           10 owner      36    46 married
    ##  2     0.238      0.762 good        good          29 owner      60    44 married
    ##  3     0.238      0.762 good        good           0 owner      60    32 married
    ##  4     0.588      0.412 bad         bad            0 ignore     48    36 married
    ##  5     0.238      0.762 good        good           1 parents    60    31 single 
    ##  6     0.238      0.762 good        bad            3 owner      24    23 married
    ##  7     0.238      0.762 good        good           4 owner      48    29 married
    ##  8     0.238      0.762 good        good           7 owner      48    32 married
    ##  9     0.238      0.762 good        good          24 owner      60    42 married
    ## 10     0.238      0.762 good        bad            0 owner      60    32 married
    ## # ℹ 881 more rows
    ## # ℹ 8 more variables: Records <fct>, Job <fct>, Expenses <int>, Income <int>,
    ## #   Assets <int>, Debt <int>, Amount <int>, Price <int>
…
